SSE #,Start (Max Duration),Start (Min Duration),End (Min Duration),End (Max Duration), estimated Mw
3,2007.0267,2007.0294,2007.128,2007.1773, 6.68
4,2007.0294,2007.0733,2007.1034,2007.1472, 5.48
5 & 6,2007.422,2007.4264,2007.5058,2007.5579, 6.14
7,2007.4576,2007.4839,2007.5397,2007.5934, 5.83
8,2007.491,2007.5318,2007.5852,2007.6099, 5.98
9,2008.2286,2008.2642,2008.3025,2008.3464, 6.04
10,2008.316,2008.3265,2008.4477,2008.4627, 6.56
12,2008.4969,2008.5298,2008.5626,2008.6174, 5.38
13,2008.8939,2008.924,2008.9569,2008.9745, 5.63
14,2009.1266,2009.166,2009.213,2009.2197, 5.50
15,2009.1759,2009.179,2009.2135,2009.251, 6.17
16,2009.3183,2009.3238,2009.436,2009.4552, 6.49
18,2009.429,2009.485,2009.5325,2009.5839, 5.57
19,2009.5579,2009.587,2009.6989,2009.7125, 6.50
22 & 23,2010.067,2010.0921,2010.1355,2010.178, 5.69
24,2010.5859,2010.5887,2010.7064,2010.7324, 6.54
26,2010.9993,2011.0431,2011.069,2011.087, 5.37
27,2011.347,2011.372,2011.3936,2011.4867, 5.72
28,2011.3689,2011.425,2011.5031,2011.6071, 6.32
29,2011.3717,2011.4275,2011.451,2011.4747, 5.42
30,2011.5305,2011.555,2011.6865,2011.7276, 6.47
33,2011.7345,2011.796,2011.841,2011.864, 5.86
34,2012.609,2012.6684,2012.791,2012.7926, 6.54
36,2012.7242,2012.7269,2012.7844,2012.843, 5.87
37,2012.7445,2012.7998,2012.8429,2012.8638, 6.22
38 & 39,2013.1403,2013.1814,2013.305,2013.3758, 6.28
40,2013.5401,2013.562,2013.5852,2013.6934, 5.74
41,2013.6769,2013.682,2013.776,2013.781, 6.58
43,2014.0274,2014.1314,2014.2108,2014.216, 6.09
44,2014.119,2014.1218,2014.1971,2014.2357, 5.56
45 & 46,2014.333,2014.438,2014.4928,2014.5051, 5.78
47 & 50,2014.5914,2014.6051,2014.7135,2014.746, 6.26
48,2014.6215,2014.6516,2014.69,2014.7392, 6.03
51,2014.857,2014.8597,2014.955,2014.9802, 6.40
53,2015.7276,2015.7851,2015.8371,2015.8535, 6.15
54 & 55,2015.9521,2015.974,2016.168,2016.1711, 6.79
56,2015.9202,2015.9603,2015.999,2016.0178, 5.73
59,2017.039,2017.1239,2017.279,2017.2827, 6.61
62 & 63,2017.2981,2017.2991,2017.3484,2017.4086, 5.86
64,2017.5428,2017.5715,2017.603,2017.606, 5.49